{
  "_format": "hh-sol-cache-2",
  "files": {
    "/var/home/vip/code/web3projects/lottery_hardhat_contract/contracts/Lottery.sol": {
      "lastModificationDate": 1658563852596,
      "contentHash": "d40eed66ae616bc08b9218c4dd1018a9",
      "sourceName": "contracts/Lottery.sol",
      "solcConfig": {
        "version": "0.8.15",
        "settings": {
          "optimizer": {
            "enabled": false,
            "runs": 200
          },
          "outputSelection": {
            "*": {
              "*": [
                "abi",
                "evm.bytecode",
                "evm.deployedBytecode",
                "evm.methodIdentifiers",
                "metadata"
              ],
              "": [
                "ast"
              ]
            }
          }
        }
      },
      "imports": [],
      "versionPragmas": [
        "0.8.15"
      ],
      "artifacts": [
        "Lottery"
      ]
    }
  }
}
